{
  "type": "service_account",
  "project_id": "pos-5e9c0",
  "private_key_id": "2ad69f25b3a2c53cd1bdc395b8d9f759a3604bd6",
  "private_key": "-----BEGIN PRIVATE KEY-----\nMIIEvAIBADANBgkqhkiG9w0BAQEFAASCBKYwggSiAgEAAoIBAQCJ1sdpasvEmEeL\nbYnuGKKRlANv7xdgN/H79qJJ1VqkHUCPAu2KOV5p7x6l9ZXeEHhTlvQ3ItsaHcKa\nC6o6jduNQrjSzm3T7vYLPW6zaJlg8Y7GYR6t42LCFTc3UP7SbwipqdosvJ40j+E7\nUN7RlI69TzPUijYIP3CD6p896F0+WJrSRp3WP7k4ao0sG1/tuX2dAz3qpq+tLDYs\ntD9zxQt+DhOo8/qAl59aH7uIHeZK+yq2BZI5GKMO3Q2Sqs6PamgkQey+3JFLeDPB\ncu6B6ZjDuGyQntBAO08AvZnHNQk8jsN3CRcD9Rc4hLptZnLqRaJx8swIZZVti2t/\nQw1kW4VLAgMBAAECggEAFgKe6x1rlmP+oKwIJ2X1p6tr9RbHs8ybLnHOrl2MUMJ/\nCZcdGUJZ6i6NxVB28vPMUwS60IcXV49DANg2AY2fbmomGzttXDc/QMI5iBp+y3Un\nKFRf0sKJhZZfr8yWNEIYrwb5WMVxudDz1UXvnqXLOT2JeDntsNl4fQgdD4SoRwkh\nA+7gpKWPEkJGEKmh+VYLo7oNaaVEgNQNFtPhkBTrry3yc6uUZ2iVl2gqzy5qT3Ae\nMbKgos4+gK3hZybOI1K0OnHNR3js8/QLNkpSbP22rkDiBzpegnQekjeoIxOuh6i8\nZsac1x88OPqQgMxBwdlBpR8LeNVNyTQ6IeIrk1ao8QKBgQDBGkAs/rA3Y0UJW7A8\nzv/hrrRIpkfjrxNXg309/IbMyhDfctPg2RVyyncGm50MkpRx2kUn3IAt/j8M5M1S\nR/TZc7hgPx3UDy39RQVjGrPEe026dE8EuNaNQcLvxWaKDbhgp0uOXN5gRdQY+5EU\n5L3YK++vnCI2+RwVq4wfkbfQ+QKBgQC2vGgUuljwL/ejycWoRSe3I4Wal4z0NOEr\nskRHgLkHJXSEPNPMxN0gKK2FQysfMogyH51tCr85CSvVjQ5ONo86wVFdf/XRflBy\nXK/eiyRrgsU/vud4Cu//KcCbHayA6VU/OwIQCN0MUR7SiDKz26A3UWtUyZfSo6Wu\nxRph3EWdYwKBgGVL6vxvgmsbxRxan8HWaL6v0d0GdVHIBqJy1KFOtjv5iA5fgyxB\nVJIKCZRKz4DH590tvfdiIU9/Pv35jIesPZJQtRiwI2qZp+tjaKcLW+AnOqgj2UvF\n1q71H1h+OgMTnXP+bpE4wGLKXq/YT8whDkG3Ep4RjpU96nCns/LfkwipAoGAG2I+\ngqSuQUge5yeMfDvoyLQFCHafg9UMzTyIqOJsV9rQDCUFZFE4BeKyph67rpAnAsPk\nFnwezdBHBlh+BVB9xENGCynqz3sLWSf0nvfg/E97eaMFEuMotecu2s/mkubkhHY2\nR+rcHUVmxgvs9TD7YG7OE8Wl/8XQRVF6M6ILuJsCgYAcUKXC2snZ3IUP3ZzQ8+qU\nETRTU5SHuMXOKNaeeXUmjwCHFQrxQp2CpMcyFnNxL5DINw6LV2fzEmgRCSg/tBeD\nNP5+G3S0FHfs02VS+R9t/HrpVnjNPxsRSAs+sxsVvFryGY9RyoI6L0fVBcddgtR1\n/fSDwvhOVUVglihKzGuCqw==\n-----END PRIVATE KEY-----\n",
  "client_email": "firebase-adminsdk-1plte@pos-5e9c0.iam.gserviceaccount.com",
  "client_id": "117850433634067436820",
  "auth_uri": "https://accounts.google.com/o/oauth2/auth",
  "token_uri": "https://oauth2.googleapis.com/token",
  "auth_provider_x509_cert_url": "https://www.googleapis.com/oauth2/v1/certs",
  "client_x509_cert_url": "https://www.googleapis.com/robot/v1/metadata/x509/firebase-adminsdk-1plte%40pos-5e9c0.iam.gserviceaccount.com",
  "universe_domain": "googleapis.com"
}
